{
  "type": "Program",
  "start": 0,
  "end": 354,
  "loc": {
    "start": {
      "line": 1,
      "column": 0
    },
    "end": {
      "line": 21,
      "column": 24
    }
  },
  "sourceType": "module",
  "body": [
    {
      "type": "ImportDeclaration",
      "start": 0,
      "end": 64,
      "loc": {
        "start": {
          "line": 1,
          "column": 0
        },
        "end": {
          "line": 1,
          "column": 64
        }
      },
      "specifiers": [
        {
          "type": "ImportSpecifier",
          "start": 9,
          "end": 23,
          "loc": {
            "start": {
              "line": 1,
              "column": 9
            },
            "end": {
              "line": 1,
              "column": 23
            }
          },
          "imported": {
            "type": "Identifier",
            "start": 9,
            "end": 23,
            "loc": {
              "start": {
                "line": 1,
                "column": 9
              },
              "end": {
                "line": 1,
                "column": 23
              }
            },
            "name": "DISPLAY_ASSETS"
          },
          "local": {
            "type": "Identifier",
            "start": 9,
            "end": 23,
            "loc": {
              "start": {
                "line": 1,
                "column": 9
              },
              "end": {
                "line": 1,
                "column": 23
              }
            },
            "name": "DISPLAY_ASSETS"
          }
        }
      ],
      "importKind": "value",
      "source": {
        "type": "Literal",
        "start": 30,
        "end": 64,
        "loc": {
          "start": {
            "line": 1,
            "column": 30
          },
          "end": {
            "line": 1,
            "column": 64
          }
        },
        "value": "../constants/fileUploadConstants",
        "rawValue": "../constants/fileUploadConstants",
        "raw": "'../constants/fileUploadConstants'"
      }
    },
    {
      "type": "ImportDeclaration",
      "start": 65,
      "end": 98,
      "loc": {
        "start": {
          "line": 2,
          "column": 0
        },
        "end": {
          "line": 2,
          "column": 33
        }
      },
      "specifiers": [
        {
          "type": "ImportDefaultSpecifier",
          "start": 72,
          "end": 81,
          "loc": {
            "start": {
              "line": 2,
              "column": 7
            },
            "end": {
              "line": 2,
              "column": 16
            }
          },
          "local": {
            "type": "Identifier",
            "start": 72,
            "end": 81,
            "loc": {
              "start": {
                "line": 2,
                "column": 7
              },
              "end": {
                "line": 2,
                "column": 16
              }
            },
            "name": "Immutable"
          }
        }
      ],
      "importKind": "value",
      "source": {
        "type": "Literal",
        "start": 87,
        "end": 98,
        "loc": {
          "start": {
            "line": 2,
            "column": 22
          },
          "end": {
            "line": 2,
            "column": 33
          }
        },
        "value": "immutable",
        "rawValue": "immutable",
        "raw": "'immutable'"
      }
    },
    {
      "type": "VariableDeclaration",
      "start": 100,
      "end": 125,
      "loc": {
        "start": {
          "line": 4,
          "column": 0
        },
        "end": {
          "line": 4,
          "column": 25
        }
      },
      "declarations": [
        {
          "type": "VariableDeclarator",
          "start": 104,
          "end": 124,
          "loc": {
            "start": {
              "line": 4,
              "column": 4
            },
            "end": {
              "line": 4,
              "column": 24
            }
          },
          "id": {
            "type": "Identifier",
            "start": 104,
            "end": 119,
            "loc": {
              "start": {
                "line": 4,
                "column": 4
              },
              "end": {
                "line": 4,
                "column": 19
              }
            },
            "name": "initilizeValues"
          },
          "init": {
            "type": "ArrayExpression",
            "start": 122,
            "end": 124,
            "loc": {
              "start": {
                "line": 4,
                "column": 22
              },
              "end": {
                "line": 4,
                "column": 24
              }
            },
            "elements": []
          }
        }
      ],
      "kind": "let"
    },
    {
      "type": "Identifier",
      "start": 127,
      "end": 328,
      "loc": {
        "start": {
          "line": 6,
          "column": 0
        },
        "end": {
          "line": 19,
          "column": 3
        }
      },
      "declarations": [
        {
          "type": "VariableDeclarator",
          "start": 133,
          "end": 328,
          "loc": {
            "start": {
              "line": 6,
              "column": 6
            },
            "end": {
              "line": 19,
              "column": 3
            }
          },
          "id": {
            "type": "Identifier",
            "start": 133,
            "end": 139,
            "loc": {
              "start": {
                "line": 6,
                "column": 6
              },
              "end": {
                "line": 6,
                "column": 12
              }
            },
            "name": "assets"
          },
          "init": {
            "type": "ArrowFunctionExpression",
            "start": 142,
            "end": 328,
            "loc": {
              "start": {
                "line": 6,
                "column": 15
              },
              "end": {
                "line": 19,
                "column": 3
              }
            },
            "id": null,
            "generator": false,
            "expression": false,
            "async": false,
            "params": [
              {
                "type": "AssignmentPattern",
                "start": 143,
                "end": 166,
                "loc": {
                  "start": {
                    "line": 6,
                    "column": 16
                  },
                  "end": {
                    "line": 6,
                    "column": 39
                  }
                },
                "left": {
                  "type": "Identifier",
                  "start": 143,
                  "end": 148,
                  "loc": {
                    "start": {
                      "line": 6,
                      "column": 16
                    },
                    "end": {
                      "line": 6,
                      "column": 21
                    }
                  },
                  "name": "state"
                },
                "right": {
                  "type": "Identifier",
                  "start": 151,
                  "end": 166,
                  "loc": {
                    "start": {
                      "line": 6,
                      "column": 24
                    },
                    "end": {
                      "line": 6,
                      "column": 39
                    }
                  },
                  "name": "initilizeValues"
                }
              },
              {
                "type": "Identifier",
                "start": 168,
                "end": 174,
                "loc": {
                  "start": {
                    "line": 6,
                    "column": 41
                  },
                  "end": {
                    "line": 6,
                    "column": 47
                  }
                },
                "name": "action"
              }
            ],
            "body": {
              "type": "BlockStatement",
              "start": 177,
              "end": 328,
              "loc": {
                "start": {
                  "line": 6,
                  "column": 50
                },
                "end": {
                  "line": 19,
                  "column": 3
                }
              },
              "body": [
                {
                  "type": "SwitchStatement",
                  "start": 182,
                  "end": 324,
                  "loc": {
                    "start": {
                      "line": 8,
                      "column": 2
                    },
                    "end": {
                      "line": 18,
                      "column": 5
                    }
                  },
                  "discriminant": {
                    "type": "MemberExpression",
                    "start": 189,
                    "end": 200,
                    "loc": {
                      "start": {
                        "line": 8,
                        "column": 9
                      },
                      "end": {
                        "line": 8,
                        "column": 20
                      }
                    },
                    "object": {
                      "type": "Identifier",
                      "start": 189,
                      "end": 195,
                      "loc": {
                        "start": {
                          "line": 8,
                          "column": 9
                        },
                        "end": {
                          "line": 8,
                          "column": 15
                        }
                      },
                      "name": "action"
                    },
                    "property": {
                      "type": "Identifier",
                      "start": 196,
                      "end": 200,
                      "loc": {
                        "start": {
                          "line": 8,
                          "column": 16
                        },
                        "end": {
                          "line": 8,
                          "column": 20
                        }
                      },
                      "name": "type"
                    },
                    "computed": false
                  },
                  "cases": [
                    {
                      "type": "SwitchCase",
                      "start": 208,
                      "end": 286,
                      "loc": {
                        "start": {
                          "line": 9,
                          "column": 4
                        },
                        "end": {
                          "line": 13,
                          "column": 10
                        }
                      },
                      "consequent": [
                        {
                          "type": "ReturnStatement",
                          "start": 233,
                          "end": 275,
                          "loc": {
                            "start": {
                              "line": 10,
                              "column": 4
                            },
                            "end": {
                              "line": 12,
                              "column": 6
                            }
                          },
                          "argument": {
                            "type": "ArrayExpression",
                            "start": 239,
                            "end": 274,
                            "loc": {
                              "start": {
                                "line": 10,
                                "column": 10
                              },
                              "end": {
                                "line": 12,
                                "column": 5
                              }
                            },
                            "elements": [
                              {
                                "type": "SpreadElement",
                                "start": 248,
                                "end": 256,
                                "loc": {
                                  "start": {
                                    "line": 11,
                                    "column": 7
                                  },
                                  "end": {
                                    "line": 11,
                                    "column": 15
                                  }
                                },
                                "argument": {
                                  "type": "Identifier",
                                  "start": 251,
                                  "end": 256,
                                  "loc": {
                                    "start": {
                                      "line": 11,
                                      "column": 10
                                    },
                                    "end": {
                                      "line": 11,
                                      "column": 15
                                    }
                                  },
                                  "name": "state"
                                }
                              },
                              {
                                "type": "MemberExpression",
                                "start": 257,
                                "end": 268,
                                "loc": {
                                  "start": {
                                    "line": 11,
                                    "column": 16
                                  },
                                  "end": {
                                    "line": 11,
                                    "column": 27
                                  }
                                },
                                "object": {
                                  "type": "Identifier",
                                  "start": 257,
                                  "end": 263,
                                  "loc": {
                                    "start": {
                                      "line": 11,
                                      "column": 16
                                    },
                                    "end": {
                                      "line": 11,
                                      "column": 22
                                    }
                                  },
                                  "name": "action"
                                },
                                "property": {
                                  "type": "Identifier",
                                  "start": 264,
                                  "end": 268,
                                  "loc": {
                                    "start": {
                                      "line": 11,
                                      "column": 23
                                    },
                                    "end": {
                                      "line": 11,
                                      "column": 27
                                    }
                                  },
                                  "name": "data"
                                },
                                "computed": false
                              }
                            ]
                          }
                        },
                        {
                          "type": "BreakStatement",
                          "start": 280,
                          "end": 286,
                          "loc": {
                            "start": {
                              "line": 13,
                              "column": 4
                            },
                            "end": {
                              "line": 13,
                              "column": 10
                            }
                          },
                          "label": null
                        }
                      ],
                      "test": {
                        "type": "Identifier",
                        "start": 213,
                        "end": 227,
                        "loc": {
                          "start": {
                            "line": 9,
                            "column": 9
                          },
                          "end": {
                            "line": 9,
                            "column": 23
                          }
                        },
                        "name": "DISPLAY_ASSETS"
                      }
                    },
                    {
                      "type": "SwitchCase",
                      "start": 292,
                      "end": 317,
                      "loc": {
                        "start": {
                          "line": 15,
                          "column": 4
                        },
                        "end": {
                          "line": 16,
                          "column": 16
                        }
                      },
                      "consequent": [
                        {
                          "type": "ReturnStatement",
                          "start": 305,
                          "end": 317,
                          "loc": {
                            "start": {
                              "line": 16,
                              "column": 4
                            },
                            "end": {
                              "line": 16,
                              "column": 16
                            }
                          },
                          "argument": {
                            "type": "Identifier",
                            "start": 312,
                            "end": 317,
                            "loc": {
                              "start": {
                                "line": 16,
                                "column": 11
                              },
                              "end": {
                                "line": 16,
                                "column": 16
                              }
                            },
                            "name": "state"
                          }
                        }
                      ],
                      "test": null
                    }
                  ]
                }
              ]
            }
          }
        }
      ],
      "kind": "const",
      "name": "_",
      "leadingComments": [],
      "trailingComments": []
    },
    {
      "type": "Identifier",
      "start": 332,
      "end": 354,
      "loc": {
        "start": {
          "line": 21,
          "column": 2
        },
        "end": {
          "line": 21,
          "column": 24
        }
      },
      "declaration": {
        "type": "Identifier",
        "start": 347,
        "end": 353,
        "loc": {
          "start": {
            "line": 21,
            "column": 17
          },
          "end": {
            "line": 21,
            "column": 23
          }
        },
        "name": "assets"
      },
      "name": "_",
      "leadingComments": [],
      "trailingComments": []
    },
    {
      "type": "ExportDefaultDeclaration",
      "start": 332,
      "end": 354,
      "loc": {
        "start": {
          "line": 21,
          "column": 2
        },
        "end": {
          "line": 21,
          "column": 24
        }
      },
      "declaration": {
        "type": "VariableDeclaration",
        "start": 127,
        "end": 328,
        "loc": {
          "start": {
            "line": 6,
            "column": 0
          },
          "end": {
            "line": 19,
            "column": 3
          }
        },
        "declarations": [
          {
            "type": "VariableDeclarator",
            "start": 133,
            "end": 328,
            "loc": {
              "start": {
                "line": 6,
                "column": 6
              },
              "end": {
                "line": 19,
                "column": 3
              }
            },
            "id": {
              "type": "Identifier",
              "start": 133,
              "end": 139,
              "loc": {
                "start": {
                  "line": 6,
                  "column": 6
                },
                "end": {
                  "line": 6,
                  "column": 12
                }
              },
              "name": "assets"
            },
            "init": {
              "type": "ArrowFunctionExpression",
              "start": 142,
              "end": 328,
              "loc": {
                "start": {
                  "line": 6,
                  "column": 15
                },
                "end": {
                  "line": 19,
                  "column": 3
                }
              },
              "id": null,
              "generator": false,
              "expression": false,
              "async": false,
              "params": [
                {
                  "type": "AssignmentPattern",
                  "start": 143,
                  "end": 166,
                  "loc": {
                    "start": {
                      "line": 6,
                      "column": 16
                    },
                    "end": {
                      "line": 6,
                      "column": 39
                    }
                  },
                  "left": {
                    "type": "Identifier",
                    "start": 143,
                    "end": 148,
                    "loc": {
                      "start": {
                        "line": 6,
                        "column": 16
                      },
                      "end": {
                        "line": 6,
                        "column": 21
                      }
                    },
                    "name": "state"
                  },
                  "right": {
                    "type": "Identifier",
                    "start": 151,
                    "end": 166,
                    "loc": {
                      "start": {
                        "line": 6,
                        "column": 24
                      },
                      "end": {
                        "line": 6,
                        "column": 39
                      }
                    },
                    "name": "initilizeValues"
                  }
                },
                {
                  "type": "Identifier",
                  "start": 168,
                  "end": 174,
                  "loc": {
                    "start": {
                      "line": 6,
                      "column": 41
                    },
                    "end": {
                      "line": 6,
                      "column": 47
                    }
                  },
                  "name": "action"
                }
              ],
              "body": {
                "type": "BlockStatement",
                "start": 177,
                "end": 328,
                "loc": {
                  "start": {
                    "line": 6,
                    "column": 50
                  },
                  "end": {
                    "line": 19,
                    "column": 3
                  }
                },
                "body": [
                  {
                    "type": "SwitchStatement",
                    "start": 182,
                    "end": 324,
                    "loc": {
                      "start": {
                        "line": 8,
                        "column": 2
                      },
                      "end": {
                        "line": 18,
                        "column": 5
                      }
                    },
                    "discriminant": {
                      "type": "MemberExpression",
                      "start": 189,
                      "end": 200,
                      "loc": {
                        "start": {
                          "line": 8,
                          "column": 9
                        },
                        "end": {
                          "line": 8,
                          "column": 20
                        }
                      },
                      "object": {
                        "type": "Identifier",
                        "start": 189,
                        "end": 195,
                        "loc": {
                          "start": {
                            "line": 8,
                            "column": 9
                          },
                          "end": {
                            "line": 8,
                            "column": 15
                          }
                        },
                        "name": "action"
                      },
                      "property": {
                        "type": "Identifier",
                        "start": 196,
                        "end": 200,
                        "loc": {
                          "start": {
                            "line": 8,
                            "column": 16
                          },
                          "end": {
                            "line": 8,
                            "column": 20
                          }
                        },
                        "name": "type"
                      },
                      "computed": false
                    },
                    "cases": [
                      {
                        "type": "SwitchCase",
                        "start": 208,
                        "end": 286,
                        "loc": {
                          "start": {
                            "line": 9,
                            "column": 4
                          },
                          "end": {
                            "line": 13,
                            "column": 10
                          }
                        },
                        "consequent": [
                          {
                            "type": "ReturnStatement",
                            "start": 233,
                            "end": 275,
                            "loc": {
                              "start": {
                                "line": 10,
                                "column": 4
                              },
                              "end": {
                                "line": 12,
                                "column": 6
                              }
                            },
                            "argument": {
                              "type": "ArrayExpression",
                              "start": 239,
                              "end": 274,
                              "loc": {
                                "start": {
                                  "line": 10,
                                  "column": 10
                                },
                                "end": {
                                  "line": 12,
                                  "column": 5
                                }
                              },
                              "elements": [
                                {
                                  "type": "SpreadElement",
                                  "start": 248,
                                  "end": 256,
                                  "loc": {
                                    "start": {
                                      "line": 11,
                                      "column": 7
                                    },
                                    "end": {
                                      "line": 11,
                                      "column": 15
                                    }
                                  },
                                  "argument": {
                                    "type": "Identifier",
                                    "start": 251,
                                    "end": 256,
                                    "loc": {
                                      "start": {
                                        "line": 11,
                                        "column": 10
                                      },
                                      "end": {
                                        "line": 11,
                                        "column": 15
                                      }
                                    },
                                    "name": "state"
                                  }
                                },
                                {
                                  "type": "MemberExpression",
                                  "start": 257,
                                  "end": 268,
                                  "loc": {
                                    "start": {
                                      "line": 11,
                                      "column": 16
                                    },
                                    "end": {
                                      "line": 11,
                                      "column": 27
                                    }
                                  },
                                  "object": {
                                    "type": "Identifier",
                                    "start": 257,
                                    "end": 263,
                                    "loc": {
                                      "start": {
                                        "line": 11,
                                        "column": 16
                                      },
                                      "end": {
                                        "line": 11,
                                        "column": 22
                                      }
                                    },
                                    "name": "action"
                                  },
                                  "property": {
                                    "type": "Identifier",
                                    "start": 264,
                                    "end": 268,
                                    "loc": {
                                      "start": {
                                        "line": 11,
                                        "column": 23
                                      },
                                      "end": {
                                        "line": 11,
                                        "column": 27
                                      }
                                    },
                                    "name": "data"
                                  },
                                  "computed": false
                                }
                              ]
                            }
                          },
                          {
                            "type": "BreakStatement",
                            "start": 280,
                            "end": 286,
                            "loc": {
                              "start": {
                                "line": 13,
                                "column": 4
                              },
                              "end": {
                                "line": 13,
                                "column": 10
                              }
                            },
                            "label": null
                          }
                        ],
                        "test": {
                          "type": "Identifier",
                          "start": 213,
                          "end": 227,
                          "loc": {
                            "start": {
                              "line": 9,
                              "column": 9
                            },
                            "end": {
                              "line": 9,
                              "column": 23
                            }
                          },
                          "name": "DISPLAY_ASSETS"
                        }
                      },
                      {
                        "type": "SwitchCase",
                        "start": 292,
                        "end": 317,
                        "loc": {
                          "start": {
                            "line": 15,
                            "column": 4
                          },
                          "end": {
                            "line": 16,
                            "column": 16
                          }
                        },
                        "consequent": [
                          {
                            "type": "ReturnStatement",
                            "start": 305,
                            "end": 317,
                            "loc": {
                              "start": {
                                "line": 16,
                                "column": 4
                              },
                              "end": {
                                "line": 16,
                                "column": 16
                              }
                            },
                            "argument": {
                              "type": "Identifier",
                              "start": 312,
                              "end": 317,
                              "loc": {
                                "start": {
                                  "line": 16,
                                  "column": 11
                                },
                                "end": {
                                  "line": 16,
                                  "column": 16
                                }
                              },
                              "name": "state"
                            }
                          }
                        ],
                        "test": null
                      }
                    ]
                  }
                ]
              }
            }
          }
        ],
        "kind": "const",
        "leadingComments": [],
        "trailingComments": []
      }
    }
  ]
}