{
  "type": "Program",
  "start": 0,
  "end": 510,
  "loc": {
    "start": {
      "line": 1,
      "column": 0
    },
    "end": {
      "line": 19,
      "column": 0
    }
  },
  "sourceType": "module",
  "body": [
    {
      "type": "ImportDeclaration",
      "start": 0,
      "end": 39,
      "loc": {
        "start": {
          "line": 1,
          "column": 0
        },
        "end": {
          "line": 1,
          "column": 39
        }
      },
      "specifiers": [
        {
          "type": "ImportSpecifier",
          "start": 9,
          "end": 24,
          "loc": {
            "start": {
              "line": 1,
              "column": 9
            },
            "end": {
              "line": 1,
              "column": 24
            }
          },
          "imported": {
            "type": "Identifier",
            "start": 9,
            "end": 24,
            "loc": {
              "start": {
                "line": 1,
                "column": 9
              },
              "end": {
                "line": 1,
                "column": 24
              }
            },
            "name": "combineReducers"
          },
          "local": {
            "type": "Identifier",
            "start": 9,
            "end": 24,
            "loc": {
              "start": {
                "line": 1,
                "column": 9
              },
              "end": {
                "line": 1,
                "column": 24
              }
            },
            "name": "combineReducers"
          }
        }
      ],
      "importKind": "value",
      "source": {
        "type": "Literal",
        "start": 32,
        "end": 39,
        "loc": {
          "start": {
            "line": 1,
            "column": 32
          },
          "end": {
            "line": 1,
            "column": 39
          }
        },
        "value": "redux",
        "rawValue": "redux",
        "raw": "'redux'"
      }
    },
    {
      "type": "ImportDeclaration",
      "start": 40,
      "end": 77,
      "loc": {
        "start": {
          "line": 2,
          "column": 0
        },
        "end": {
          "line": 2,
          "column": 37
        }
      },
      "specifiers": [
        {
          "type": "ImportDefaultSpecifier",
          "start": 47,
          "end": 57,
          "loc": {
            "start": {
              "line": 2,
              "column": 7
            },
            "end": {
              "line": 2,
              "column": 17
            }
          },
          "local": {
            "type": "Identifier",
            "start": 47,
            "end": 57,
            "loc": {
              "start": {
                "line": 2,
                "column": 7
              },
              "end": {
                "line": 2,
                "column": 17
              }
            },
            "name": "fileUpload"
          }
        }
      ],
      "importKind": "value",
      "source": {
        "type": "Literal",
        "start": 63,
        "end": 77,
        "loc": {
          "start": {
            "line": 2,
            "column": 23
          },
          "end": {
            "line": 2,
            "column": 37
          }
        },
        "value": "./fileUpload",
        "rawValue": "./fileUpload",
        "raw": "'./fileUpload'"
      }
    },
    {
      "type": "ImportDeclaration",
      "start": 78,
      "end": 128,
      "loc": {
        "start": {
          "line": 3,
          "column": 0
        },
        "end": {
          "line": 3,
          "column": 50
        }
      },
      "specifiers": [
        {
          "type": "ImportSpecifier",
          "start": 86,
          "end": 108,
          "loc": {
            "start": {
              "line": 3,
              "column": 8
            },
            "end": {
              "line": 3,
              "column": 30
            }
          },
          "imported": {
            "type": "Identifier",
            "start": 86,
            "end": 93,
            "loc": {
              "start": {
                "line": 3,
                "column": 8
              },
              "end": {
                "line": 3,
                "column": 15
              }
            },
            "name": "reducer"
          },
          "local": {
            "type": "Identifier",
            "start": 97,
            "end": 108,
            "loc": {
              "start": {
                "line": 3,
                "column": 19
              },
              "end": {
                "line": 3,
                "column": 30
              }
            },
            "name": "formReducer"
          }
        }
      ],
      "importKind": "value",
      "source": {
        "type": "Literal",
        "start": 115,
        "end": 127,
        "loc": {
          "start": {
            "line": 3,
            "column": 37
          },
          "end": {
            "line": 3,
            "column": 49
          }
        },
        "value": "redux-form",
        "rawValue": "redux-form",
        "raw": "'redux-form'"
      }
    },
    {
      "type": "ImportDeclaration",
      "start": 129,
      "end": 191,
      "loc": {
        "start": {
          "line": 4,
          "column": 0
        },
        "end": {
          "line": 4,
          "column": 62
        }
      },
      "specifiers": [
        {
          "type": "ImportDefaultSpecifier",
          "start": 136,
          "end": 158,
          "loc": {
            "start": {
              "line": 4,
              "column": 7
            },
            "end": {
              "line": 4,
              "column": 29
            }
          },
          "local": {
            "type": "Identifier",
            "start": 136,
            "end": 158,
            "loc": {
              "start": {
                "line": 4,
                "column": 7
              },
              "end": {
                "line": 4,
                "column": 29
              }
            },
            "name": "CheckJobStatusReducers"
          }
        }
      ],
      "importKind": "value",
      "source": {
        "type": "Literal",
        "start": 164,
        "end": 190,
        "loc": {
          "start": {
            "line": 4,
            "column": 35
          },
          "end": {
            "line": 4,
            "column": 61
          }
        },
        "value": "./CheckJobStatusReducers",
        "rawValue": "./CheckJobStatusReducers",
        "raw": "'./CheckJobStatusReducers'"
      }
    },
    {
      "type": "ImportDeclaration",
      "start": 192,
      "end": 222,
      "loc": {
        "start": {
          "line": 5,
          "column": 0
        },
        "end": {
          "line": 5,
          "column": 30
        }
      },
      "specifiers": [
        {
          "type": "ImportDefaultSpecifier",
          "start": 199,
          "end": 205,
          "loc": {
            "start": {
              "line": 5,
              "column": 7
            },
            "end": {
              "line": 5,
              "column": 13
            }
          },
          "local": {
            "type": "Identifier",
            "start": 199,
            "end": 205,
            "loc": {
              "start": {
                "line": 5,
                "column": 7
              },
              "end": {
                "line": 5,
                "column": 13
              }
            },
            "name": "assets"
          }
        }
      ],
      "importKind": "value",
      "source": {
        "type": "Literal",
        "start": 211,
        "end": 221,
        "loc": {
          "start": {
            "line": 5,
            "column": 19
          },
          "end": {
            "line": 5,
            "column": 29
          }
        },
        "value": "./assets",
        "rawValue": "./assets",
        "raw": "'./assets'"
      }
    },
    {
      "type": "ImportDeclaration",
      "start": 223,
      "end": 273,
      "loc": {
        "start": {
          "line": 6,
          "column": 0
        },
        "end": {
          "line": 6,
          "column": 50
        }
      },
      "specifiers": [
        {
          "type": "ImportSpecifier",
          "start": 232,
          "end": 245,
          "loc": {
            "start": {
              "line": 6,
              "column": 9
            },
            "end": {
              "line": 6,
              "column": 22
            }
          },
          "imported": {
            "type": "Identifier",
            "start": 232,
            "end": 245,
            "loc": {
              "start": {
                "line": 6,
                "column": 9
              },
              "end": {
                "line": 6,
                "column": 22
              }
            },
            "name": "routerReducer"
          },
          "local": {
            "type": "Identifier",
            "start": 232,
            "end": 245,
            "loc": {
              "start": {
                "line": 6,
                "column": 9
              },
              "end": {
                "line": 6,
                "column": 22
              }
            },
            "name": "routerReducer"
          }
        }
      ],
      "importKind": "value",
      "source": {
        "type": "Literal",
        "start": 253,
        "end": 273,
        "loc": {
          "start": {
            "line": 6,
            "column": 30
          },
          "end": {
            "line": 6,
            "column": 50
          }
        },
        "value": "react-router-redux",
        "rawValue": "react-router-redux",
        "raw": "'react-router-redux'"
      }
    },
    {
      "type": "ImportDeclaration",
      "start": 274,
      "end": 323,
      "loc": {
        "start": {
          "line": 7,
          "column": 0
        },
        "end": {
          "line": 7,
          "column": 49
        }
      },
      "specifiers": [
        {
          "type": "ImportDefaultSpecifier",
          "start": 281,
          "end": 297,
          "loc": {
            "start": {
              "line": 7,
              "column": 7
            },
            "end": {
              "line": 7,
              "column": 23
            }
          },
          "local": {
            "type": "Identifier",
            "start": 281,
            "end": 297,
            "loc": {
              "start": {
                "line": 7,
                "column": 7
              },
              "end": {
                "line": 7,
                "column": 23
              }
            },
            "name": "TreePaneReducers"
          }
        }
      ],
      "importKind": "value",
      "source": {
        "type": "Literal",
        "start": 303,
        "end": 322,
        "loc": {
          "start": {
            "line": 7,
            "column": 29
          },
          "end": {
            "line": 7,
            "column": 48
          }
        },
        "value": "./TreePaneReducer",
        "rawValue": "./TreePaneReducer",
        "raw": "'./TreePaneReducer'"
      }
    },
    {
      "type": "Identifier",
      "start": 325,
      "end": 480,
      "loc": {
        "start": {
          "line": 9,
          "column": 0
        },
        "end": {
          "line": 16,
          "column": 3
        }
      },
      "declarations": [
        {
          "type": "VariableDeclarator",
          "start": 331,
          "end": 479,
          "loc": {
            "start": {
              "line": 9,
              "column": 6
            },
            "end": {
              "line": 16,
              "column": 2
            }
          },
          "id": {
            "type": "Identifier",
            "start": 331,
            "end": 343,
            "loc": {
              "start": {
                "line": 9,
                "column": 6
              },
              "end": {
                "line": 9,
                "column": 18
              }
            },
            "name": "rootMetaData"
          },
          "init": {
            "type": "CallExpression",
            "start": 346,
            "end": 479,
            "loc": {
              "start": {
                "line": 9,
                "column": 21
              },
              "end": {
                "line": 16,
                "column": 2
              }
            },
            "callee": {
              "type": "Identifier",
              "start": 346,
              "end": 361,
              "loc": {
                "start": {
                  "line": 9,
                  "column": 21
                },
                "end": {
                  "line": 9,
                  "column": 36
                }
              },
              "name": "combineReducers"
            },
            "arguments": [
              {
                "type": "ObjectExpression",
                "start": 362,
                "end": 478,
                "loc": {
                  "start": {
                    "line": 9,
                    "column": 37
                  },
                  "end": {
                    "line": 16,
                    "column": 1
                  }
                },
                "properties": [
                  {
                    "type": "Property",
                    "start": 365,
                    "end": 382,
                    "loc": {
                      "start": {
                        "line": 10,
                        "column": 1
                      },
                      "end": {
                        "line": 10,
                        "column": 18
                      }
                    },
                    "method": false,
                    "shorthand": false,
                    "computed": false,
                    "key": {
                      "type": "Identifier",
                      "start": 365,
                      "end": 369,
                      "loc": {
                        "start": {
                          "line": 10,
                          "column": 1
                        },
                        "end": {
                          "line": 10,
                          "column": 5
                        }
                      },
                      "name": "form"
                    },
                    "value": {
                      "type": "Identifier",
                      "start": 371,
                      "end": 382,
                      "loc": {
                        "start": {
                          "line": 10,
                          "column": 7
                        },
                        "end": {
                          "line": 10,
                          "column": 18
                        }
                      },
                      "name": "formReducer"
                    },
                    "kind": "init"
                  },
                  {
                    "type": "Property",
                    "start": 385,
                    "end": 407,
                    "loc": {
                      "start": {
                        "line": 11,
                        "column": 1
                      },
                      "end": {
                        "line": 11,
                        "column": 23
                      }
                    },
                    "method": false,
                    "shorthand": false,
                    "computed": false,
                    "key": {
                      "type": "Identifier",
                      "start": 385,
                      "end": 392,
                      "loc": {
                        "start": {
                          "line": 11,
                          "column": 1
                        },
                        "end": {
                          "line": 11,
                          "column": 8
                        }
                      },
                      "name": "routing"
                    },
                    "value": {
                      "type": "Identifier",
                      "start": 394,
                      "end": 407,
                      "loc": {
                        "start": {
                          "line": 11,
                          "column": 10
                        },
                        "end": {
                          "line": 11,
                          "column": 23
                        }
                      },
                      "name": "routerReducer"
                    },
                    "kind": "init"
                  },
                  {
                    "type": "Property",
                    "start": 410,
                    "end": 432,
                    "loc": {
                      "start": {
                        "line": 12,
                        "column": 1
                      },
                      "end": {
                        "line": 12,
                        "column": 23
                      }
                    },
                    "method": false,
                    "shorthand": true,
                    "computed": false,
                    "key": {
                      "type": "Identifier",
                      "start": 410,
                      "end": 432,
                      "loc": {
                        "start": {
                          "line": 12,
                          "column": 1
                        },
                        "end": {
                          "line": 12,
                          "column": 23
                        }
                      },
                      "name": "CheckJobStatusReducers"
                    },
                    "kind": "init",
                    "value": {
                      "type": "Identifier",
                      "start": 410,
                      "end": 432,
                      "loc": {
                        "start": {
                          "line": 12,
                          "column": 1
                        },
                        "end": {
                          "line": 12,
                          "column": 23
                        }
                      },
                      "name": "CheckJobStatusReducers"
                    }
                  },
                  {
                    "type": "Property",
                    "start": 438,
                    "end": 444,
                    "loc": {
                      "start": {
                        "line": 13,
                        "column": 4
                      },
                      "end": {
                        "line": 13,
                        "column": 10
                      }
                    },
                    "method": false,
                    "shorthand": true,
                    "computed": false,
                    "key": {
                      "type": "Identifier",
                      "start": 438,
                      "end": 444,
                      "loc": {
                        "start": {
                          "line": 13,
                          "column": 4
                        },
                        "end": {
                          "line": 13,
                          "column": 10
                        }
                      },
                      "name": "assets"
                    },
                    "kind": "init",
                    "value": {
                      "type": "Identifier",
                      "start": 438,
                      "end": 444,
                      "loc": {
                        "start": {
                          "line": 13,
                          "column": 4
                        },
                        "end": {
                          "line": 13,
                          "column": 10
                        }
                      },
                      "name": "assets"
                    }
                  },
                  {
                    "type": "Property",
                    "start": 447,
                    "end": 457,
                    "loc": {
                      "start": {
                        "line": 14,
                        "column": 1
                      },
                      "end": {
                        "line": 14,
                        "column": 11
                      }
                    },
                    "method": false,
                    "shorthand": true,
                    "computed": false,
                    "key": {
                      "type": "Identifier",
                      "start": 447,
                      "end": 457,
                      "loc": {
                        "start": {
                          "line": 14,
                          "column": 1
                        },
                        "end": {
                          "line": 14,
                          "column": 11
                        }
                      },
                      "name": "fileUpload"
                    },
                    "kind": "init",
                    "value": {
                      "type": "Identifier",
                      "start": 447,
                      "end": 457,
                      "loc": {
                        "start": {
                          "line": 14,
                          "column": 1
                        },
                        "end": {
                          "line": 14,
                          "column": 11
                        }
                      },
                      "name": "fileUpload"
                    }
                  },
                  {
                    "type": "Property",
                    "start": 460,
                    "end": 476,
                    "loc": {
                      "start": {
                        "line": 15,
                        "column": 1
                      },
                      "end": {
                        "line": 15,
                        "column": 17
                      }
                    },
                    "method": false,
                    "shorthand": true,
                    "computed": false,
                    "key": {
                      "type": "Identifier",
                      "start": 460,
                      "end": 476,
                      "loc": {
                        "start": {
                          "line": 15,
                          "column": 1
                        },
                        "end": {
                          "line": 15,
                          "column": 17
                        }
                      },
                      "name": "TreePaneReducers"
                    },
                    "kind": "init",
                    "value": {
                      "type": "Identifier",
                      "start": 460,
                      "end": 476,
                      "loc": {
                        "start": {
                          "line": 15,
                          "column": 1
                        },
                        "end": {
                          "line": 15,
                          "column": 17
                        }
                      },
                      "name": "TreePaneReducers"
                    }
                  }
                ]
              }
            ]
          }
        }
      ],
      "kind": "const",
      "name": "_",
      "leadingComments": [],
      "trailingComments": []
    },
    {
      "type": "Identifier",
      "start": 482,
      "end": 509,
      "loc": {
        "start": {
          "line": 18,
          "column": 0
        },
        "end": {
          "line": 18,
          "column": 27
        }
      },
      "declaration": {
        "type": "Identifier",
        "start": 497,
        "end": 509,
        "loc": {
          "start": {
            "line": 18,
            "column": 15
          },
          "end": {
            "line": 18,
            "column": 27
          }
        },
        "name": "rootMetaData"
      },
      "name": "_",
      "leadingComments": [],
      "trailingComments": []
    },
    {
      "type": "ExportDefaultDeclaration",
      "start": 482,
      "end": 509,
      "loc": {
        "start": {
          "line": 18,
          "column": 0
        },
        "end": {
          "line": 18,
          "column": 27
        }
      },
      "declaration": {
        "type": "VariableDeclaration",
        "start": 325,
        "end": 480,
        "loc": {
          "start": {
            "line": 9,
            "column": 0
          },
          "end": {
            "line": 16,
            "column": 3
          }
        },
        "declarations": [
          {
            "type": "VariableDeclarator",
            "start": 331,
            "end": 479,
            "loc": {
              "start": {
                "line": 9,
                "column": 6
              },
              "end": {
                "line": 16,
                "column": 2
              }
            },
            "id": {
              "type": "Identifier",
              "start": 331,
              "end": 343,
              "loc": {
                "start": {
                  "line": 9,
                  "column": 6
                },
                "end": {
                  "line": 9,
                  "column": 18
                }
              },
              "name": "rootMetaData"
            },
            "init": {
              "type": "CallExpression",
              "start": 346,
              "end": 479,
              "loc": {
                "start": {
                  "line": 9,
                  "column": 21
                },
                "end": {
                  "line": 16,
                  "column": 2
                }
              },
              "callee": {
                "type": "Identifier",
                "start": 346,
                "end": 361,
                "loc": {
                  "start": {
                    "line": 9,
                    "column": 21
                  },
                  "end": {
                    "line": 9,
                    "column": 36
                  }
                },
                "name": "combineReducers"
              },
              "arguments": [
                {
                  "type": "ObjectExpression",
                  "start": 362,
                  "end": 478,
                  "loc": {
                    "start": {
                      "line": 9,
                      "column": 37
                    },
                    "end": {
                      "line": 16,
                      "column": 1
                    }
                  },
                  "properties": [
                    {
                      "type": "Property",
                      "start": 365,
                      "end": 382,
                      "loc": {
                        "start": {
                          "line": 10,
                          "column": 1
                        },
                        "end": {
                          "line": 10,
                          "column": 18
                        }
                      },
                      "method": false,
                      "shorthand": false,
                      "computed": false,
                      "key": {
                        "type": "Identifier",
                        "start": 365,
                        "end": 369,
                        "loc": {
                          "start": {
                            "line": 10,
                            "column": 1
                          },
                          "end": {
                            "line": 10,
                            "column": 5
                          }
                        },
                        "name": "form"
                      },
                      "value": {
                        "type": "Identifier",
                        "start": 371,
                        "end": 382,
                        "loc": {
                          "start": {
                            "line": 10,
                            "column": 7
                          },
                          "end": {
                            "line": 10,
                            "column": 18
                          }
                        },
                        "name": "formReducer"
                      },
                      "kind": "init"
                    },
                    {
                      "type": "Property",
                      "start": 385,
                      "end": 407,
                      "loc": {
                        "start": {
                          "line": 11,
                          "column": 1
                        },
                        "end": {
                          "line": 11,
                          "column": 23
                        }
                      },
                      "method": false,
                      "shorthand": false,
                      "computed": false,
                      "key": {
                        "type": "Identifier",
                        "start": 385,
                        "end": 392,
                        "loc": {
                          "start": {
                            "line": 11,
                            "column": 1
                          },
                          "end": {
                            "line": 11,
                            "column": 8
                          }
                        },
                        "name": "routing"
                      },
                      "value": {
                        "type": "Identifier",
                        "start": 394,
                        "end": 407,
                        "loc": {
                          "start": {
                            "line": 11,
                            "column": 10
                          },
                          "end": {
                            "line": 11,
                            "column": 23
                          }
                        },
                        "name": "routerReducer"
                      },
                      "kind": "init"
                    },
                    {
                      "type": "Property",
                      "start": 410,
                      "end": 432,
                      "loc": {
                        "start": {
                          "line": 12,
                          "column": 1
                        },
                        "end": {
                          "line": 12,
                          "column": 23
                        }
                      },
                      "method": false,
                      "shorthand": true,
                      "computed": false,
                      "key": {
                        "type": "Identifier",
                        "start": 410,
                        "end": 432,
                        "loc": {
                          "start": {
                            "line": 12,
                            "column": 1
                          },
                          "end": {
                            "line": 12,
                            "column": 23
                          }
                        },
                        "name": "CheckJobStatusReducers"
                      },
                      "kind": "init",
                      "value": {
                        "type": "Identifier",
                        "start": 410,
                        "end": 432,
                        "loc": {
                          "start": {
                            "line": 12,
                            "column": 1
                          },
                          "end": {
                            "line": 12,
                            "column": 23
                          }
                        },
                        "name": "CheckJobStatusReducers"
                      }
                    },
                    {
                      "type": "Property",
                      "start": 438,
                      "end": 444,
                      "loc": {
                        "start": {
                          "line": 13,
                          "column": 4
                        },
                        "end": {
                          "line": 13,
                          "column": 10
                        }
                      },
                      "method": false,
                      "shorthand": true,
                      "computed": false,
                      "key": {
                        "type": "Identifier",
                        "start": 438,
                        "end": 444,
                        "loc": {
                          "start": {
                            "line": 13,
                            "column": 4
                          },
                          "end": {
                            "line": 13,
                            "column": 10
                          }
                        },
                        "name": "assets"
                      },
                      "kind": "init",
                      "value": {
                        "type": "Identifier",
                        "start": 438,
                        "end": 444,
                        "loc": {
                          "start": {
                            "line": 13,
                            "column": 4
                          },
                          "end": {
                            "line": 13,
                            "column": 10
                          }
                        },
                        "name": "assets"
                      }
                    },
                    {
                      "type": "Property",
                      "start": 447,
                      "end": 457,
                      "loc": {
                        "start": {
                          "line": 14,
                          "column": 1
                        },
                        "end": {
                          "line": 14,
                          "column": 11
                        }
                      },
                      "method": false,
                      "shorthand": true,
                      "computed": false,
                      "key": {
                        "type": "Identifier",
                        "start": 447,
                        "end": 457,
                        "loc": {
                          "start": {
                            "line": 14,
                            "column": 1
                          },
                          "end": {
                            "line": 14,
                            "column": 11
                          }
                        },
                        "name": "fileUpload"
                      },
                      "kind": "init",
                      "value": {
                        "type": "Identifier",
                        "start": 447,
                        "end": 457,
                        "loc": {
                          "start": {
                            "line": 14,
                            "column": 1
                          },
                          "end": {
                            "line": 14,
                            "column": 11
                          }
                        },
                        "name": "fileUpload"
                      }
                    },
                    {
                      "type": "Property",
                      "start": 460,
                      "end": 476,
                      "loc": {
                        "start": {
                          "line": 15,
                          "column": 1
                        },
                        "end": {
                          "line": 15,
                          "column": 17
                        }
                      },
                      "method": false,
                      "shorthand": true,
                      "computed": false,
                      "key": {
                        "type": "Identifier",
                        "start": 460,
                        "end": 476,
                        "loc": {
                          "start": {
                            "line": 15,
                            "column": 1
                          },
                          "end": {
                            "line": 15,
                            "column": 17
                          }
                        },
                        "name": "TreePaneReducers"
                      },
                      "kind": "init",
                      "value": {
                        "type": "Identifier",
                        "start": 460,
                        "end": 476,
                        "loc": {
                          "start": {
                            "line": 15,
                            "column": 1
                          },
                          "end": {
                            "line": 15,
                            "column": 17
                          }
                        },
                        "name": "TreePaneReducers"
                      }
                    }
                  ]
                }
              ]
            }
          }
        ],
        "kind": "const",
        "leadingComments": [],
        "trailingComments": []
      }
    }
  ]
}