{
  "type": "Program",
  "start": 0,
  "end": 669,
  "loc": {
    "start": {
      "line": 1,
      "column": 0
    },
    "end": {
      "line": 25,
      "column": 0
    }
  },
  "sourceType": "module",
  "body": [
    {
      "type": "ImportDeclaration",
      "start": 0,
      "end": 26,
      "loc": {
        "start": {
          "line": 1,
          "column": 0
        },
        "end": {
          "line": 1,
          "column": 26
        }
      },
      "specifiers": [
        {
          "type": "ImportDefaultSpecifier",
          "start": 7,
          "end": 12,
          "loc": {
            "start": {
              "line": 1,
              "column": 7
            },
            "end": {
              "line": 1,
              "column": 12
            }
          },
          "local": {
            "type": "Identifier",
            "start": 7,
            "end": 12,
            "loc": {
              "start": {
                "line": 1,
                "column": 7
              },
              "end": {
                "line": 1,
                "column": 12
              }
            },
            "name": "React"
          }
        }
      ],
      "importKind": "value",
      "source": {
        "type": "Literal",
        "start": 18,
        "end": 25,
        "loc": {
          "start": {
            "line": 1,
            "column": 18
          },
          "end": {
            "line": 1,
            "column": 25
          }
        },
        "value": "react",
        "rawValue": "react",
        "raw": "'react'"
      }
    },
    {
      "type": "ImportDeclaration",
      "start": 27,
      "end": 65,
      "loc": {
        "start": {
          "line": 2,
          "column": 0
        },
        "end": {
          "line": 2,
          "column": 38
        }
      },
      "specifiers": [
        {
          "type": "ImportDefaultSpecifier",
          "start": 34,
          "end": 44,
          "loc": {
            "start": {
              "line": 2,
              "column": 7
            },
            "end": {
              "line": 2,
              "column": 17
            }
          },
          "local": {
            "type": "Identifier",
            "start": 34,
            "end": 44,
            "loc": {
              "start": {
                "line": 2,
                "column": 7
              },
              "end": {
                "line": 2,
                "column": 17
              }
            },
            "name": "AddAnAsset"
          }
        }
      ],
      "importKind": "value",
      "source": {
        "type": "Literal",
        "start": 50,
        "end": 64,
        "loc": {
          "start": {
            "line": 2,
            "column": 23
          },
          "end": {
            "line": 2,
            "column": 37
          }
        },
        "value": "./AddAnAsset",
        "rawValue": "./AddAnAsset",
        "raw": "'./AddAnAsset'"
      }
    },
    {
      "type": "ImportDeclaration",
      "start": 66,
      "end": 125,
      "loc": {
        "start": {
          "line": 3,
          "column": 0
        },
        "end": {
          "line": 3,
          "column": 59
        }
      },
      "specifiers": [
        {
          "type": "ImportDefaultSpecifier",
          "start": 73,
          "end": 88,
          "loc": {
            "start": {
              "line": 3,
              "column": 7
            },
            "end": {
              "line": 3,
              "column": 22
            }
          },
          "local": {
            "type": "Identifier",
            "start": 73,
            "end": 88,
            "loc": {
              "start": {
                "line": 3,
                "column": 7
              },
              "end": {
                "line": 3,
                "column": 22
              }
            },
            "name": "AssetsContainer"
          }
        }
      ],
      "importKind": "value",
      "source": {
        "type": "Literal",
        "start": 94,
        "end": 124,
        "loc": {
          "start": {
            "line": 3,
            "column": 28
          },
          "end": {
            "line": 3,
            "column": 58
          }
        },
        "value": "../container/AssetsContainer",
        "rawValue": "../container/AssetsContainer",
        "raw": "'../container/AssetsContainer'"
      }
    },
    {
      "type": "ImportDeclaration",
      "start": 126,
      "end": 182,
      "loc": {
        "start": {
          "line": 4,
          "column": 0
        },
        "end": {
          "line": 4,
          "column": 56
        }
      },
      "specifiers": [
        {
          "type": "ImportDefaultSpecifier",
          "start": 133,
          "end": 143,
          "loc": {
            "start": {
              "line": 4,
              "column": 7
            },
            "end": {
              "line": 4,
              "column": 17
            }
          },
          "local": {
            "type": "Identifier",
            "start": 133,
            "end": 143,
            "loc": {
              "start": {
                "line": 4,
                "column": 7
              },
              "end": {
                "line": 4,
                "column": 17
              }
            },
            "name": "FolderTree"
          }
        }
      ],
      "importKind": "value",
      "source": {
        "type": "Literal",
        "start": 149,
        "end": 181,
        "loc": {
          "start": {
            "line": 4,
            "column": 23
          },
          "end": {
            "line": 4,
            "column": 55
          }
        },
        "value": "../container/TreePaneContainer",
        "rawValue": "../container/TreePaneContainer",
        "raw": "'../container/TreePaneContainer'"
      }
    },
    {
      "type": "ExportDefaultDeclaration",
      "start": 183,
      "end": 635,
      "loc": {
        "start": {
          "line": 5,
          "column": 0
        },
        "end": {
          "line": 21,
          "column": 1
        }
      },
      "declaration": {
        "type": "FunctionDeclaration",
        "start": 198,
        "end": 635,
        "loc": {
          "start": {
            "line": 5,
            "column": 15
          },
          "end": {
            "line": 21,
            "column": 1
          }
        },
        "id": {
          "type": "Identifier",
          "start": 207,
          "end": 219,
          "loc": {
            "start": {
              "line": 5,
              "column": 24
            },
            "end": {
              "line": 5,
              "column": 36
            }
          },
          "name": "BrowseAssets"
        },
        "generator": false,
        "expression": false,
        "async": false,
        "params": [
          {
            "type": "ObjectPattern",
            "start": 220,
            "end": 232,
            "loc": {
              "start": {
                "line": 5,
                "column": 37
              },
              "end": {
                "line": 5,
                "column": 49
              }
            },
            "properties": [
              {
                "type": "Property",
                "start": 222,
                "end": 230,
                "loc": {
                  "start": {
                    "line": 5,
                    "column": 39
                  },
                  "end": {
                    "line": 5,
                    "column": 47
                  }
                },
                "method": false,
                "shorthand": true,
                "computed": false,
                "key": {
                  "type": "Identifier",
                  "start": 222,
                  "end": 230,
                  "loc": {
                    "start": {
                      "line": 5,
                      "column": 39
                    },
                    "end": {
                      "line": 5,
                      "column": 47
                    }
                  },
                  "name": "children"
                },
                "kind": "init",
                "value": {
                  "type": "Identifier",
                  "start": 222,
                  "end": 230,
                  "loc": {
                    "start": {
                      "line": 5,
                      "column": 39
                    },
                    "end": {
                      "line": 5,
                      "column": 47
                    }
                  },
                  "name": "children"
                }
              }
            ]
          }
        ],
        "body": {
          "type": "BlockStatement",
          "start": 234,
          "end": 635,
          "loc": {
            "start": {
              "line": 5,
              "column": 51
            },
            "end": {
              "line": 21,
              "column": 1
            }
          },
          "body": [
            {
              "type": "ReturnStatement",
              "start": 238,
              "end": 633,
              "loc": {
                "start": {
                  "line": 6,
                  "column": 2
                },
                "end": {
                  "line": 20,
                  "column": 3
                }
              },
              "argument": {
                "type": "JSXElement",
                "start": 251,
                "end": 629,
                "loc": {
                  "start": {
                    "line": 7,
                    "column": 4
                  },
                  "end": {
                    "line": 19,
                    "column": 10
                  }
                },
                "openingElement": {
                  "type": "JSXOpeningElement",
                  "start": 251,
                  "end": 256,
                  "loc": {
                    "start": {
                      "line": 7,
                      "column": 4
                    },
                    "end": {
                      "line": 7,
                      "column": 9
                    }
                  },
                  "attributes": [],
                  "name": {
                    "type": "JSXIdentifier",
                    "start": 252,
                    "end": 255,
                    "loc": {
                      "start": {
                        "line": 7,
                        "column": 5
                      },
                      "end": {
                        "line": 7,
                        "column": 8
                      }
                    },
                    "name": "div"
                  },
                  "selfClosing": false
                },
                "closingElement": {
                  "type": "JSXClosingElement",
                  "start": 623,
                  "end": 629,
                  "loc": {
                    "start": {
                      "line": 19,
                      "column": 4
                    },
                    "end": {
                      "line": 19,
                      "column": 10
                    }
                  },
                  "name": {
                    "type": "JSXIdentifier",
                    "start": 625,
                    "end": 628,
                    "loc": {
                      "start": {
                        "line": 19,
                        "column": 6
                      },
                      "end": {
                        "line": 19,
                        "column": 9
                      }
                    },
                    "name": "div"
                  }
                },
                "children": [
                  {
                    "type": "Literal",
                    "start": 256,
                    "end": 265,
                    "loc": {
                      "start": {
                        "line": 7,
                        "column": 9
                      },
                      "end": {
                        "line": 8,
                        "column": 8
                      }
                    },
                    "value": "\n        ",
                    "rawValue": null,
                    "raw": "\n        "
                  },
                  {
                    "type": "JSXElement",
                    "start": 265,
                    "end": 381,
                    "loc": {
                      "start": {
                        "line": 8,
                        "column": 8
                      },
                      "end": {
                        "line": 10,
                        "column": 14
                      }
                    },
                    "openingElement": {
                      "type": "JSXOpeningElement",
                      "start": 265,
                      "end": 270,
                      "loc": {
                        "start": {
                          "line": 8,
                          "column": 8
                        },
                        "end": {
                          "line": 8,
                          "column": 13
                        }
                      },
                      "attributes": [],
                      "name": {
                        "type": "JSXIdentifier",
                        "start": 266,
                        "end": 269,
                        "loc": {
                          "start": {
                            "line": 8,
                            "column": 9
                          },
                          "end": {
                            "line": 8,
                            "column": 12
                          }
                        },
                        "name": "div"
                      },
                      "selfClosing": false
                    },
                    "closingElement": {
                      "type": "JSXClosingElement",
                      "start": 375,
                      "end": 381,
                      "loc": {
                        "start": {
                          "line": 10,
                          "column": 8
                        },
                        "end": {
                          "line": 10,
                          "column": 14
                        }
                      },
                      "name": {
                        "type": "JSXIdentifier",
                        "start": 377,
                        "end": 380,
                        "loc": {
                          "start": {
                            "line": 10,
                            "column": 10
                          },
                          "end": {
                            "line": 10,
                            "column": 13
                          }
                        },
                        "name": "div"
                      }
                    },
                    "children": [
                      {
                        "type": "Literal",
                        "start": 270,
                        "end": 283,
                        "loc": {
                          "start": {
                            "line": 8,
                            "column": 13
                          },
                          "end": {
                            "line": 9,
                            "column": 12
                          }
                        },
                        "value": "\n            ",
                        "rawValue": null,
                        "raw": "\n            "
                      },
                      {
                        "type": "JSXElement",
                        "start": 283,
                        "end": 366,
                        "loc": {
                          "start": {
                            "line": 9,
                            "column": 12
                          },
                          "end": {
                            "line": 9,
                            "column": 95
                          }
                        },
                        "openingElement": {
                          "type": "JSXOpeningElement",
                          "start": 283,
                          "end": 289,
                          "loc": {
                            "start": {
                              "line": 9,
                              "column": 12
                            },
                            "end": {
                              "line": 9,
                              "column": 18
                            }
                          },
                          "attributes": [],
                          "name": {
                            "type": "JSXIdentifier",
                            "start": 284,
                            "end": 288,
                            "loc": {
                              "start": {
                                "line": 9,
                                "column": 13
                              },
                              "end": {
                                "line": 9,
                                "column": 17
                              }
                            },
                            "name": "span"
                          },
                          "selfClosing": false
                        },
                        "closingElement": {
                          "type": "JSXClosingElement",
                          "start": 359,
                          "end": 366,
                          "loc": {
                            "start": {
                              "line": 9,
                              "column": 88
                            },
                            "end": {
                              "line": 9,
                              "column": 95
                            }
                          },
                          "name": {
                            "type": "JSXIdentifier",
                            "start": 361,
                            "end": 365,
                            "loc": {
                              "start": {
                                "line": 9,
                                "column": 90
                              },
                              "end": {
                                "line": 9,
                                "column": 94
                              }
                            },
                            "name": "span"
                          }
                        },
                        "children": [
                          {
                            "type": "Literal",
                            "start": 289,
                            "end": 359,
                            "loc": {
                              "start": {
                                "line": 9,
                                "column": 18
                              },
                              "end": {
                                "line": 9,
                                "column": 88
                              }
                            },
                            "value": "Browsing in: The Humanities: Culture, Continuity and Change, VolumeIII",
                            "rawValue": null,
                            "raw": "Browsing in: The Humanities: Culture, Continuity and Change, VolumeIII"
                          }
                        ]
                      },
                      {
                        "type": "Literal",
                        "start": 366,
                        "end": 375,
                        "loc": {
                          "start": {
                            "line": 9,
                            "column": 95
                          },
                          "end": {
                            "line": 10,
                            "column": 8
                          }
                        },
                        "value": "\n        ",
                        "rawValue": null,
                        "raw": "\n        "
                      }
                    ]
                  },
                  {
                    "type": "Literal",
                    "start": 381,
                    "end": 390,
                    "loc": {
                      "start": {
                        "line": 10,
                        "column": 14
                      },
                      "end": {
                        "line": 11,
                        "column": 8
                      }
                    },
                    "value": "\n        ",
                    "rawValue": null,
                    "raw": "\n        "
                  },
                  {
                    "type": "JSXElement",
                    "start": 390,
                    "end": 618,
                    "loc": {
                      "start": {
                        "line": 11,
                        "column": 8
                      },
                      "end": {
                        "line": 18,
                        "column": 14
                      }
                    },
                    "openingElement": {
                      "type": "JSXOpeningElement",
                      "start": 390,
                      "end": 411,
                      "loc": {
                        "start": {
                          "line": 11,
                          "column": 8
                        },
                        "end": {
                          "line": 11,
                          "column": 29
                        }
                      },
                      "attributes": [
                        {
                          "type": "JSXAttribute",
                          "start": 395,
                          "end": 410,
                          "loc": {
                            "start": {
                              "line": 11,
                              "column": 13
                            },
                            "end": {
                              "line": 11,
                              "column": 28
                            }
                          },
                          "name": {
                            "type": "JSXIdentifier",
                            "start": 395,
                            "end": 404,
                            "loc": {
                              "start": {
                                "line": 11,
                                "column": 13
                              },
                              "end": {
                                "line": 11,
                                "column": 22
                              }
                            },
                            "name": "className"
                          },
                          "value": {
                            "type": "Literal",
                            "start": 405,
                            "end": 410,
                            "loc": {
                              "start": {
                                "line": 11,
                                "column": 23
                              },
                              "end": {
                                "line": 11,
                                "column": 28
                              }
                            },
                            "value": "row",
                            "rawValue": null,
                            "raw": "\"row\""
                          }
                        }
                      ],
                      "name": {
                        "type": "JSXIdentifier",
                        "start": 391,
                        "end": 394,
                        "loc": {
                          "start": {
                            "line": 11,
                            "column": 9
                          },
                          "end": {
                            "line": 11,
                            "column": 12
                          }
                        },
                        "name": "div"
                      },
                      "selfClosing": false
                    },
                    "closingElement": {
                      "type": "JSXClosingElement",
                      "start": 612,
                      "end": 618,
                      "loc": {
                        "start": {
                          "line": 18,
                          "column": 8
                        },
                        "end": {
                          "line": 18,
                          "column": 14
                        }
                      },
                      "name": {
                        "type": "JSXIdentifier",
                        "start": 614,
                        "end": 617,
                        "loc": {
                          "start": {
                            "line": 18,
                            "column": 10
                          },
                          "end": {
                            "line": 18,
                            "column": 13
                          }
                        },
                        "name": "div"
                      }
                    },
                    "children": [
                      {
                        "type": "Literal",
                        "start": 411,
                        "end": 424,
                        "loc": {
                          "start": {
                            "line": 11,
                            "column": 29
                          },
                          "end": {
                            "line": 12,
                            "column": 12
                          }
                        },
                        "value": "\n            ",
                        "rawValue": null,
                        "raw": "\n            "
                      },
                      {
                        "type": "JSXElement",
                        "start": 424,
                        "end": 509,
                        "loc": {
                          "start": {
                            "line": 12,
                            "column": 12
                          },
                          "end": {
                            "line": 14,
                            "column": 18
                          }
                        },
                        "openingElement": {
                          "type": "JSXOpeningElement",
                          "start": 424,
                          "end": 460,
                          "loc": {
                            "start": {
                              "line": 12,
                              "column": 12
                            },
                            "end": {
                              "line": 12,
                              "column": 48
                            }
                          },
                          "attributes": [
                            {
                              "type": "JSXAttribute",
                              "start": 429,
                              "end": 459,
                              "loc": {
                                "start": {
                                  "line": 12,
                                  "column": 17
                                },
                                "end": {
                                  "line": 12,
                                  "column": 47
                                }
                              },
                              "name": {
                                "type": "JSXIdentifier",
                                "start": 429,
                                "end": 438,
                                "loc": {
                                  "start": {
                                    "line": 12,
                                    "column": 17
                                  },
                                  "end": {
                                    "line": 12,
                                    "column": 26
                                  }
                                },
                                "name": "className"
                              },
                              "value": {
                                "type": "Literal",
                                "start": 439,
                                "end": 459,
                                "loc": {
                                  "start": {
                                    "line": 12,
                                    "column": 27
                                  },
                                  "end": {
                                    "line": 12,
                                    "column": 47
                                  }
                                },
                                "value": "col-md-4 seperator",
                                "rawValue": null,
                                "raw": "\"col-md-4 seperator\""
                              }
                            }
                          ],
                          "name": {
                            "type": "JSXIdentifier",
                            "start": 425,
                            "end": 428,
                            "loc": {
                              "start": {
                                "line": 12,
                                "column": 13
                              },
                              "end": {
                                "line": 12,
                                "column": 16
                              }
                            },
                            "name": "div"
                          },
                          "selfClosing": false
                        },
                        "closingElement": {
                          "type": "JSXClosingElement",
                          "start": 503,
                          "end": 509,
                          "loc": {
                            "start": {
                              "line": 14,
                              "column": 12
                            },
                            "end": {
                              "line": 14,
                              "column": 18
                            }
                          },
                          "name": {
                            "type": "JSXIdentifier",
                            "start": 505,
                            "end": 508,
                            "loc": {
                              "start": {
                                "line": 14,
                                "column": 14
                              },
                              "end": {
                                "line": 14,
                                "column": 17
                              }
                            },
                            "name": "div"
                          }
                        },
                        "children": [
                          {
                            "type": "Literal",
                            "start": 460,
                            "end": 477,
                            "loc": {
                              "start": {
                                "line": 12,
                                "column": 48
                              },
                              "end": {
                                "line": 13,
                                "column": 16
                              }
                            },
                            "value": "\n                ",
                            "rawValue": null,
                            "raw": "\n                "
                          },
                          {
                            "type": "JSXElement",
                            "start": 477,
                            "end": 490,
                            "loc": {
                              "start": {
                                "line": 13,
                                "column": 16
                              },
                              "end": {
                                "line": 13,
                                "column": 29
                              }
                            },
                            "openingElement": {
                              "type": "JSXOpeningElement",
                              "start": 477,
                              "end": 490,
                              "loc": {
                                "start": {
                                  "line": 13,
                                  "column": 16
                                },
                                "end": {
                                  "line": 13,
                                  "column": 29
                                }
                              },
                              "attributes": [],
                              "name": {
                                "type": "JSXIdentifier",
                                "start": 478,
                                "end": 488,
                                "loc": {
                                  "start": {
                                    "line": 13,
                                    "column": 17
                                  },
                                  "end": {
                                    "line": 13,
                                    "column": 27
                                  }
                                },
                                "name": "FolderTree"
                              },
                              "selfClosing": true
                            },
                            "closingElement": null,
                            "children": []
                          },
                          {
                            "type": "Literal",
                            "start": 490,
                            "end": 503,
                            "loc": {
                              "start": {
                                "line": 13,
                                "column": 29
                              },
                              "end": {
                                "line": 14,
                                "column": 12
                              }
                            },
                            "value": "\n            ",
                            "rawValue": null,
                            "raw": "\n            "
                          }
                        ]
                      },
                      {
                        "type": "Literal",
                        "start": 509,
                        "end": 522,
                        "loc": {
                          "start": {
                            "line": 14,
                            "column": 18
                          },
                          "end": {
                            "line": 15,
                            "column": 12
                          }
                        },
                        "value": "\n            ",
                        "rawValue": null,
                        "raw": "\n            "
                      },
                      {
                        "type": "JSXElement",
                        "start": 522,
                        "end": 603,
                        "loc": {
                          "start": {
                            "line": 15,
                            "column": 12
                          },
                          "end": {
                            "line": 17,
                            "column": 18
                          }
                        },
                        "openingElement": {
                          "type": "JSXOpeningElement",
                          "start": 522,
                          "end": 548,
                          "loc": {
                            "start": {
                              "line": 15,
                              "column": 12
                            },
                            "end": {
                              "line": 15,
                              "column": 38
                            }
                          },
                          "attributes": [
                            {
                              "type": "JSXAttribute",
                              "start": 527,
                              "end": 547,
                              "loc": {
                                "start": {
                                  "line": 15,
                                  "column": 17
                                },
                                "end": {
                                  "line": 15,
                                  "column": 37
                                }
                              },
                              "name": {
                                "type": "JSXIdentifier",
                                "start": 527,
                                "end": 536,
                                "loc": {
                                  "start": {
                                    "line": 15,
                                    "column": 17
                                  },
                                  "end": {
                                    "line": 15,
                                    "column": 26
                                  }
                                },
                                "name": "className"
                              },
                              "value": {
                                "type": "Literal",
                                "start": 537,
                                "end": 547,
                                "loc": {
                                  "start": {
                                    "line": 15,
                                    "column": 27
                                  },
                                  "end": {
                                    "line": 15,
                                    "column": 37
                                  }
                                },
                                "value": "col-md-8",
                                "rawValue": null,
                                "raw": "\"col-md-8\""
                              }
                            }
                          ],
                          "name": {
                            "type": "JSXIdentifier",
                            "start": 523,
                            "end": 526,
                            "loc": {
                              "start": {
                                "line": 15,
                                "column": 13
                              },
                              "end": {
                                "line": 15,
                                "column": 16
                              }
                            },
                            "name": "div"
                          },
                          "selfClosing": false
                        },
                        "closingElement": {
                          "type": "JSXClosingElement",
                          "start": 597,
                          "end": 603,
                          "loc": {
                            "start": {
                              "line": 17,
                              "column": 12
                            },
                            "end": {
                              "line": 17,
                              "column": 18
                            }
                          },
                          "name": {
                            "type": "JSXIdentifier",
                            "start": 599,
                            "end": 602,
                            "loc": {
                              "start": {
                                "line": 17,
                                "column": 14
                              },
                              "end": {
                                "line": 17,
                                "column": 17
                              }
                            },
                            "name": "div"
                          }
                        },
                        "children": [
                          {
                            "type": "Literal",
                            "start": 548,
                            "end": 565,
                            "loc": {
                              "start": {
                                "line": 15,
                                "column": 38
                              },
                              "end": {
                                "line": 16,
                                "column": 16
                              }
                            },
                            "value": "\n                ",
                            "rawValue": null,
                            "raw": "\n                "
                          },
                          {
                            "type": "JSXElement",
                            "start": 565,
                            "end": 584,
                            "loc": {
                              "start": {
                                "line": 16,
                                "column": 16
                              },
                              "end": {
                                "line": 16,
                                "column": 35
                              }
                            },
                            "openingElement": {
                              "type": "JSXOpeningElement",
                              "start": 565,
                              "end": 584,
                              "loc": {
                                "start": {
                                  "line": 16,
                                  "column": 16
                                },
                                "end": {
                                  "line": 16,
                                  "column": 35
                                }
                              },
                              "attributes": [],
                              "name": {
                                "type": "JSXIdentifier",
                                "start": 566,
                                "end": 581,
                                "loc": {
                                  "start": {
                                    "line": 16,
                                    "column": 17
                                  },
                                  "end": {
                                    "line": 16,
                                    "column": 32
                                  }
                                },
                                "name": "AssetsContainer"
                              },
                              "selfClosing": true
                            },
                            "closingElement": null,
                            "children": []
                          },
                          {
                            "type": "Literal",
                            "start": 584,
                            "end": 597,
                            "loc": {
                              "start": {
                                "line": 16,
                                "column": 35
                              },
                              "end": {
                                "line": 17,
                                "column": 12
                              }
                            },
                            "value": "\n            ",
                            "rawValue": null,
                            "raw": "\n            "
                          }
                        ]
                      },
                      {
                        "type": "Literal",
                        "start": 603,
                        "end": 612,
                        "loc": {
                          "start": {
                            "line": 17,
                            "column": 18
                          },
                          "end": {
                            "line": 18,
                            "column": 8
                          }
                        },
                        "value": "\n        ",
                        "rawValue": null,
                        "raw": "\n        "
                      }
                    ]
                  },
                  {
                    "type": "Literal",
                    "start": 618,
                    "end": 623,
                    "loc": {
                      "start": {
                        "line": 18,
                        "column": 14
                      },
                      "end": {
                        "line": 19,
                        "column": 4
                      }
                    },
                    "value": "\n    ",
                    "rawValue": null,
                    "raw": "\n    "
                  }
                ],
                "parenthesizedExpression": true
              }
            }
          ]
        },
        "leadingComments": [],
        "trailingComments": []
      }
    },
    {
      "type": "ExpressionStatement",
      "start": 637,
      "end": 667,
      "loc": {
        "start": {
          "line": 23,
          "column": 0
        },
        "end": {
          "line": 23,
          "column": 30
        }
      },
      "expression": {
        "type": "AssignmentExpression",
        "start": 637,
        "end": 666,
        "loc": {
          "start": {
            "line": 23,
            "column": 0
          },
          "end": {
            "line": 23,
            "column": 29
          }
        },
        "operator": "=",
        "left": {
          "type": "MemberExpression",
          "start": 637,
          "end": 651,
          "loc": {
            "start": {
              "line": 23,
              "column": 0
            },
            "end": {
              "line": 23,
              "column": 14
            }
          },
          "object": {
            "type": "Identifier",
            "start": 637,
            "end": 643,
            "loc": {
              "start": {
                "line": 23,
                "column": 0
              },
              "end": {
                "line": 23,
                "column": 6
              }
            },
            "name": "module"
          },
          "property": {
            "type": "Identifier",
            "start": 644,
            "end": 651,
            "loc": {
              "start": {
                "line": 23,
                "column": 7
              },
              "end": {
                "line": 23,
                "column": 14
              }
            },
            "name": "exports"
          },
          "computed": false
        },
        "right": {
          "type": "Identifier",
          "start": 654,
          "end": 666,
          "loc": {
            "start": {
              "line": 23,
              "column": 17
            },
            "end": {
              "line": 23,
              "column": 29
            }
          },
          "name": "BrowseAssets"
        }
      }
    }
  ]
}