{
  "type": "Program",
  "start": 0,
  "end": 574,
  "loc": {
    "start": {
      "line": 1,
      "column": 0
    },
    "end": {
      "line": 28,
      "column": 37
    }
  },
  "sourceType": "module",
  "body": [
    {
      "type": "ImportDeclaration",
      "start": 0,
      "end": 26,
      "loc": {
        "start": {
          "line": 1,
          "column": 0
        },
        "end": {
          "line": 1,
          "column": 26
        }
      },
      "specifiers": [
        {
          "type": "ImportDefaultSpecifier",
          "start": 7,
          "end": 12,
          "loc": {
            "start": {
              "line": 1,
              "column": 7
            },
            "end": {
              "line": 1,
              "column": 12
            }
          },
          "local": {
            "type": "Identifier",
            "start": 7,
            "end": 12,
            "loc": {
              "start": {
                "line": 1,
                "column": 7
              },
              "end": {
                "line": 1,
                "column": 12
              }
            },
            "name": "React"
          }
        }
      ],
      "importKind": "value",
      "source": {
        "type": "Literal",
        "start": 18,
        "end": 25,
        "loc": {
          "start": {
            "line": 1,
            "column": 18
          },
          "end": {
            "line": 1,
            "column": 25
          }
        },
        "value": "react",
        "rawValue": "react",
        "raw": "'react'"
      }
    },
    {
      "type": "ImportDeclaration",
      "start": 27,
      "end": 62,
      "loc": {
        "start": {
          "line": 2,
          "column": 0
        },
        "end": {
          "line": 2,
          "column": 35
        }
      },
      "specifiers": [
        {
          "type": "ImportDefaultSpecifier",
          "start": 34,
          "end": 43,
          "loc": {
            "start": {
              "line": 2,
              "column": 7
            },
            "end": {
              "line": 2,
              "column": 16
            }
          },
          "local": {
            "type": "Identifier",
            "start": 34,
            "end": 43,
            "loc": {
              "start": {
                "line": 2,
                "column": 7
              },
              "end": {
                "line": 2,
                "column": 16
              }
            },
            "name": "ReactTabs"
          }
        }
      ],
      "importKind": "value",
      "source": {
        "type": "Literal",
        "start": 49,
        "end": 61,
        "loc": {
          "start": {
            "line": 2,
            "column": 22
          },
          "end": {
            "line": 2,
            "column": 34
          }
        },
        "value": "react-tabs",
        "rawValue": "react-tabs",
        "raw": "'react-tabs'"
      }
    },
    {
      "type": "ImportDeclaration",
      "start": 63,
      "end": 94,
      "loc": {
        "start": {
          "line": 3,
          "column": 0
        },
        "end": {
          "line": 3,
          "column": 31
        }
      },
      "specifiers": [
        {
          "type": "ImportDefaultSpecifier",
          "start": 70,
          "end": 75,
          "loc": {
            "start": {
              "line": 3,
              "column": 7
            },
            "end": {
              "line": 3,
              "column": 12
            }
          },
          "local": {
            "type": "Identifier",
            "start": 70,
            "end": 75,
            "loc": {
              "start": {
                "line": 3,
                "column": 7
              },
              "end": {
                "line": 3,
                "column": 12
              }
            },
            "name": "Table"
          }
        }
      ],
      "importKind": "value",
      "source": {
        "type": "Literal",
        "start": 81,
        "end": 93,
        "loc": {
          "start": {
            "line": 3,
            "column": 18
          },
          "end": {
            "line": 3,
            "column": 30
          }
        },
        "value": "./Table.js",
        "rawValue": "./Table.js",
        "raw": "'./Table.js'"
      }
    },
    {
      "type": "ImportDeclaration",
      "start": 95,
      "end": 153,
      "loc": {
        "start": {
          "line": 4,
          "column": 0
        },
        "end": {
          "line": 4,
          "column": 58
        }
      },
      "specifiers": [
        {
          "type": "ImportSpecifier",
          "start": 104,
          "end": 107,
          "loc": {
            "start": {
              "line": 4,
              "column": 9
            },
            "end": {
              "line": 4,
              "column": 12
            }
          },
          "imported": {
            "type": "Identifier",
            "start": 104,
            "end": 107,
            "loc": {
              "start": {
                "line": 4,
                "column": 9
              },
              "end": {
                "line": 4,
                "column": 12
              }
            },
            "name": "Tab"
          },
          "local": {
            "type": "Identifier",
            "start": 104,
            "end": 107,
            "loc": {
              "start": {
                "line": 4,
                "column": 9
              },
              "end": {
                "line": 4,
                "column": 12
              }
            },
            "name": "Tab"
          }
        },
        {
          "type": "ImportSpecifier",
          "start": 109,
          "end": 113,
          "loc": {
            "start": {
              "line": 4,
              "column": 14
            },
            "end": {
              "line": 4,
              "column": 18
            }
          },
          "imported": {
            "type": "Identifier",
            "start": 109,
            "end": 113,
            "loc": {
              "start": {
                "line": 4,
                "column": 14
              },
              "end": {
                "line": 4,
                "column": 18
              }
            },
            "name": "Tabs"
          },
          "local": {
            "type": "Identifier",
            "start": 109,
            "end": 113,
            "loc": {
              "start": {
                "line": 4,
                "column": 14
              },
              "end": {
                "line": 4,
                "column": 18
              }
            },
            "name": "Tabs"
          }
        },
        {
          "type": "ImportSpecifier",
          "start": 115,
          "end": 122,
          "loc": {
            "start": {
              "line": 4,
              "column": 20
            },
            "end": {
              "line": 4,
              "column": 27
            }
          },
          "imported": {
            "type": "Identifier",
            "start": 115,
            "end": 122,
            "loc": {
              "start": {
                "line": 4,
                "column": 20
              },
              "end": {
                "line": 4,
                "column": 27
              }
            },
            "name": "TabList"
          },
          "local": {
            "type": "Identifier",
            "start": 115,
            "end": 122,
            "loc": {
              "start": {
                "line": 4,
                "column": 20
              },
              "end": {
                "line": 4,
                "column": 27
              }
            },
            "name": "TabList"
          }
        },
        {
          "type": "ImportSpecifier",
          "start": 124,
          "end": 132,
          "loc": {
            "start": {
              "line": 4,
              "column": 29
            },
            "end": {
              "line": 4,
              "column": 37
            }
          },
          "imported": {
            "type": "Identifier",
            "start": 124,
            "end": 132,
            "loc": {
              "start": {
                "line": 4,
                "column": 29
              },
              "end": {
                "line": 4,
                "column": 37
              }
            },
            "name": "TabPanel"
          },
          "local": {
            "type": "Identifier",
            "start": 124,
            "end": 132,
            "loc": {
              "start": {
                "line": 4,
                "column": 29
              },
              "end": {
                "line": 4,
                "column": 37
              }
            },
            "name": "TabPanel"
          }
        }
      ],
      "importKind": "value",
      "source": {
        "type": "Literal",
        "start": 140,
        "end": 152,
        "loc": {
          "start": {
            "line": 4,
            "column": 45
          },
          "end": {
            "line": 4,
            "column": 57
          }
        },
        "value": "react-tabs",
        "rawValue": "react-tabs",
        "raw": "'react-tabs'"
      }
    },
    {
      "type": "ClassDeclaration",
      "start": 155,
      "end": 535,
      "loc": {
        "start": {
          "line": 6,
          "column": 0
        },
        "end": {
          "line": 26,
          "column": 1
        }
      },
      "id": {
        "type": "Identifier",
        "start": 161,
        "end": 180,
        "loc": {
          "start": {
            "line": 6,
            "column": 6
          },
          "end": {
            "line": 6,
            "column": 25
          }
        },
        "name": "checkJobStatusPopup"
      },
      "superClass": {
        "type": "MemberExpression",
        "start": 189,
        "end": 204,
        "loc": {
          "start": {
            "line": 6,
            "column": 34
          },
          "end": {
            "line": 6,
            "column": 49
          }
        },
        "object": {
          "type": "Identifier",
          "start": 189,
          "end": 194,
          "loc": {
            "start": {
              "line": 6,
              "column": 34
            },
            "end": {
              "line": 6,
              "column": 39
            }
          },
          "name": "React"
        },
        "property": {
          "type": "Identifier",
          "start": 195,
          "end": 204,
          "loc": {
            "start": {
              "line": 6,
              "column": 40
            },
            "end": {
              "line": 6,
              "column": 49
            }
          },
          "name": "Component"
        },
        "computed": false
      },
      "body": {
        "type": "ClassBody",
        "start": 204,
        "end": 535,
        "loc": {
          "start": {
            "line": 6,
            "column": 49
          },
          "end": {
            "line": 26,
            "column": 1
          }
        },
        "body": [
          {
            "type": "MethodDefinition",
            "start": 208,
            "end": 300,
            "loc": {
              "start": {
                "line": 8,
                "column": 1
              },
              "end": {
                "line": 11,
                "column": 2
              }
            },
            "computed": false,
            "key": {
              "type": "Identifier",
              "start": 208,
              "end": 219,
              "loc": {
                "start": {
                  "line": 8,
                  "column": 1
                },
                "end": {
                  "line": 8,
                  "column": 12
                }
              },
              "name": "constructor"
            },
            "static": false,
            "kind": "constructor",
            "value": {
              "type": "FunctionExpression",
              "start": 219,
              "end": 300,
              "loc": {
                "start": {
                  "line": 8,
                  "column": 12
                },
                "end": {
                  "line": 11,
                  "column": 2
                }
              },
              "id": null,
              "generator": false,
              "expression": false,
              "async": false,
              "params": [
                {
                  "type": "Identifier",
                  "start": 220,
                  "end": 225,
                  "loc": {
                    "start": {
                      "line": 8,
                      "column": 13
                    },
                    "end": {
                      "line": 8,
                      "column": 18
                    }
                  },
                  "name": "props"
                }
              ],
              "body": {
                "type": "BlockStatement",
                "start": 226,
                "end": 300,
                "loc": {
                  "start": {
                    "line": 8,
                    "column": 19
                  },
                  "end": {
                    "line": 11,
                    "column": 2
                  }
                },
                "body": [
                  {
                    "type": "ExpressionStatement",
                    "start": 230,
                    "end": 243,
                    "loc": {
                      "start": {
                        "line": 9,
                        "column": 2
                      },
                      "end": {
                        "line": 9,
                        "column": 15
                      }
                    },
                    "expression": {
                      "type": "CallExpression",
                      "start": 230,
                      "end": 242,
                      "loc": {
                        "start": {
                          "line": 9,
                          "column": 2
                        },
                        "end": {
                          "line": 9,
                          "column": 14
                        }
                      },
                      "callee": {
                        "type": "Super",
                        "start": 230,
                        "end": 235,
                        "loc": {
                          "start": {
                            "line": 9,
                            "column": 2
                          },
                          "end": {
                            "line": 9,
                            "column": 7
                          }
                        }
                      },
                      "arguments": [
                        {
                          "type": "Identifier",
                          "start": 236,
                          "end": 241,
                          "loc": {
                            "start": {
                              "line": 9,
                              "column": 8
                            },
                            "end": {
                              "line": 9,
                              "column": 13
                            }
                          },
                          "name": "props"
                        }
                      ]
                    }
                  },
                  {
                    "type": "ExpressionStatement",
                    "start": 246,
                    "end": 297,
                    "loc": {
                      "start": {
                        "line": 10,
                        "column": 2
                      },
                      "end": {
                        "line": 10,
                        "column": 53
                      }
                    },
                    "expression": {
                      "type": "AssignmentExpression",
                      "start": 246,
                      "end": 296,
                      "loc": {
                        "start": {
                          "line": 10,
                          "column": 2
                        },
                        "end": {
                          "line": 10,
                          "column": 52
                        }
                      },
                      "operator": "=",
                      "left": {
                        "type": "MemberExpression",
                        "start": 246,
                        "end": 269,
                        "loc": {
                          "start": {
                            "line": 10,
                            "column": 2
                          },
                          "end": {
                            "line": 10,
                            "column": 25
                          }
                        },
                        "object": {
                          "type": "ThisExpression",
                          "start": 246,
                          "end": 250,
                          "loc": {
                            "start": {
                              "line": 10,
                              "column": 2
                            },
                            "end": {
                              "line": 10,
                              "column": 6
                            }
                          }
                        },
                        "property": {
                          "type": "Identifier",
                          "start": 251,
                          "end": 269,
                          "loc": {
                            "start": {
                              "line": 10,
                              "column": 7
                            },
                            "end": {
                              "line": 10,
                              "column": 25
                            }
                          },
                          "name": "componentWillMount"
                        },
                        "computed": false
                      },
                      "right": {
                        "type": "MemberExpression",
                        "start": 272,
                        "end": 296,
                        "loc": {
                          "start": {
                            "line": 10,
                            "column": 28
                          },
                          "end": {
                            "line": 10,
                            "column": 52
                          }
                        },
                        "object": {
                          "type": "Identifier",
                          "start": 272,
                          "end": 277,
                          "loc": {
                            "start": {
                              "line": 10,
                              "column": 28
                            },
                            "end": {
                              "line": 10,
                              "column": 33
                            }
                          },
                          "name": "props"
                        },
                        "property": {
                          "type": "Identifier",
                          "start": 278,
                          "end": 296,
                          "loc": {
                            "start": {
                              "line": 10,
                              "column": 34
                            },
                            "end": {
                              "line": 10,
                              "column": 52
                            }
                          },
                          "name": "componentWillMount"
                        },
                        "computed": false
                      }
                    }
                  }
                ]
              }
            }
          },
          {
            "type": "MethodDefinition",
            "start": 303,
            "end": 531,
            "loc": {
              "start": {
                "line": 14,
                "column": 0
              },
              "end": {
                "line": 23,
                "column": 1
              }
            },
            "computed": false,
            "key": {
              "type": "Identifier",
              "start": 303,
              "end": 309,
              "loc": {
                "start": {
                  "line": 14,
                  "column": 0
                },
                "end": {
                  "line": 14,
                  "column": 6
                }
              },
              "name": "render"
            },
            "static": false,
            "kind": "method",
            "value": {
              "type": "FunctionExpression",
              "start": 309,
              "end": 531,
              "loc": {
                "start": {
                  "line": 14,
                  "column": 6
                },
                "end": {
                  "line": 23,
                  "column": 1
                }
              },
              "id": null,
              "generator": false,
              "expression": false,
              "async": false,
              "params": [],
              "body": {
                "type": "BlockStatement",
                "start": 311,
                "end": 531,
                "loc": {
                  "start": {
                    "line": 14,
                    "column": 8
                  },
                  "end": {
                    "line": 23,
                    "column": 1
                  }
                },
                "body": [
                  {
                    "type": "VariableDeclaration",
                    "start": 313,
                    "end": 366,
                    "loc": {
                      "start": {
                        "line": 15,
                        "column": 0
                      },
                      "end": {
                        "line": 15,
                        "column": 53
                      }
                    },
                    "declarations": [
                      {
                        "type": "VariableDeclarator",
                        "start": 319,
                        "end": 366,
                        "loc": {
                          "start": {
                            "line": 15,
                            "column": 6
                          },
                          "end": {
                            "line": 15,
                            "column": 53
                          }
                        },
                        "id": {
                          "type": "Identifier",
                          "start": 319,
                          "end": 326,
                          "loc": {
                            "start": {
                              "line": 15,
                              "column": 6
                            },
                            "end": {
                              "line": 15,
                              "column": 13
                            }
                          },
                          "name": "columns"
                        },
                        "init": {
                          "type": "ArrayExpression",
                          "start": 329,
                          "end": 366,
                          "loc": {
                            "start": {
                              "line": 15,
                              "column": 16
                            },
                            "end": {
                              "line": 15,
                              "column": 53
                            }
                          },
                          "elements": [
                            {
                              "type": "Literal",
                              "start": 330,
                              "end": 336,
                              "loc": {
                                "start": {
                                  "line": 15,
                                  "column": 17
                                },
                                "end": {
                                  "line": 15,
                                  "column": 23
                                }
                              },
                              "value": "Name",
                              "rawValue": "Name",
                              "raw": "'Name'"
                            },
                            {
                              "type": "Literal",
                              "start": 338,
                              "end": 344,
                              "loc": {
                                "start": {
                                  "line": 15,
                                  "column": 25
                                },
                                "end": {
                                  "line": 15,
                                  "column": 31
                                }
                              },
                              "value": "Size",
                              "rawValue": "Size",
                              "raw": "'Size'"
                            },
                            {
                              "type": "Literal",
                              "start": 346,
                              "end": 356,
                              "loc": {
                                "start": {
                                  "line": 15,
                                  "column": 33
                                },
                                "end": {
                                  "line": 15,
                                  "column": 43
                                }
                              },
                              "value": "Progress",
                              "rawValue": "Progress",
                              "raw": "'Progress'"
                            },
                            {
                              "type": "Literal",
                              "start": 357,
                              "end": 365,
                              "loc": {
                                "start": {
                                  "line": 15,
                                  "column": 44
                                },
                                "end": {
                                  "line": 15,
                                  "column": 52
                                }
                              },
                              "value": "Status",
                              "rawValue": "Status",
                              "raw": "'Status'"
                            }
                          ]
                        }
                      }
                    ],
                    "kind": "const"
                  },
                  {
                    "type": "ReturnStatement",
                    "start": 367,
                    "end": 529,
                    "loc": {
                      "start": {
                        "line": 16,
                        "column": 0
                      },
                      "end": {
                        "line": 22,
                        "column": 4
                      }
                    },
                    "argument": {
                      "type": "JSXElement",
                      "start": 377,
                      "end": 524,
                      "loc": {
                        "start": {
                          "line": 17,
                          "column": 2
                        },
                        "end": {
                          "line": 21,
                          "column": 13
                        }
                      },
                      "openingElement": {
                        "type": "JSXOpeningElement",
                        "start": 377,
                        "end": 382,
                        "loc": {
                          "start": {
                            "line": 17,
                            "column": 2
                          },
                          "end": {
                            "line": 17,
                            "column": 7
                          }
                        },
                        "attributes": [],
                        "name": {
                          "type": "JSXIdentifier",
                          "start": 378,
                          "end": 381,
                          "loc": {
                            "start": {
                              "line": 17,
                              "column": 3
                            },
                            "end": {
                              "line": 17,
                              "column": 6
                            }
                          },
                          "name": "div"
                        },
                        "selfClosing": false
                      },
                      "closingElement": {
                        "type": "JSXClosingElement",
                        "start": 518,
                        "end": 524,
                        "loc": {
                          "start": {
                            "line": 21,
                            "column": 7
                          },
                          "end": {
                            "line": 21,
                            "column": 13
                          }
                        },
                        "name": {
                          "type": "JSXIdentifier",
                          "start": 520,
                          "end": 523,
                          "loc": {
                            "start": {
                              "line": 21,
                              "column": 9
                            },
                            "end": {
                              "line": 21,
                              "column": 12
                            }
                          },
                          "name": "div"
                        }
                      },
                      "children": [
                        {
                          "type": "Literal",
                          "start": 382,
                          "end": 394,
                          "loc": {
                            "start": {
                              "line": 17,
                              "column": 7
                            },
                            "end": {
                              "line": 18,
                              "column": 11
                            }
                          },
                          "value": "\n           ",
                          "rawValue": null,
                          "raw": "\n           "
                        },
                        {
                          "type": "JSXElement",
                          "start": 394,
                          "end": 500,
                          "loc": {
                            "start": {
                              "line": 18,
                              "column": 11
                            },
                            "end": {
                              "line": 20,
                              "column": 38
                            }
                          },
                          "openingElement": {
                            "type": "JSXOpeningElement",
                            "start": 394,
                            "end": 500,
                            "loc": {
                              "start": {
                                "line": 18,
                                "column": 11
                              },
                              "end": {
                                "line": 20,
                                "column": 38
                              }
                            },
                            "attributes": [
                              {
                                "type": "JSXAttribute",
                                "start": 401,
                                "end": 429,
                                "loc": {
                                  "start": {
                                    "line": 18,
                                    "column": 18
                                  },
                                  "end": {
                                    "line": 18,
                                    "column": 46
                                  }
                                },
                                "name": {
                                  "type": "JSXIdentifier",
                                  "start": 401,
                                  "end": 410,
                                  "loc": {
                                    "start": {
                                      "line": 18,
                                      "column": 18
                                    },
                                    "end": {
                                      "line": 18,
                                      "column": 27
                                    }
                                  },
                                  "name": "className"
                                },
                                "value": {
                                  "type": "Literal",
                                  "start": 411,
                                  "end": 429,
                                  "loc": {
                                    "start": {
                                      "line": 18,
                                      "column": 28
                                    },
                                    "end": {
                                      "line": 18,
                                      "column": 46
                                    }
                                  },
                                  "value": "jobScheduleTable",
                                  "rawValue": null,
                                  "raw": "\"jobScheduleTable\""
                                }
                              },
                              {
                                "type": "JSXAttribute",
                                "start": 443,
                                "end": 460,
                                "loc": {
                                  "start": {
                                    "line": 19,
                                    "column": 13
                                  },
                                  "end": {
                                    "line": 19,
                                    "column": 30
                                  }
                                },
                                "name": {
                                  "type": "JSXIdentifier",
                                  "start": 443,
                                  "end": 450,
                                  "loc": {
                                    "start": {
                                      "line": 19,
                                      "column": 13
                                    },
                                    "end": {
                                      "line": 19,
                                      "column": 20
                                    }
                                  },
                                  "name": "columns"
                                },
                                "value": {
                                  "type": "JSXExpressionContainer",
                                  "start": 451,
                                  "end": 460,
                                  "loc": {
                                    "start": {
                                      "line": 19,
                                      "column": 21
                                    },
                                    "end": {
                                      "line": 19,
                                      "column": 30
                                    }
                                  },
                                  "expression": {
                                    "type": "Identifier",
                                    "start": 452,
                                    "end": 459,
                                    "loc": {
                                      "start": {
                                        "line": 19,
                                        "column": 22
                                      },
                                      "end": {
                                        "line": 19,
                                        "column": 29
                                      }
                                    },
                                    "name": "columns"
                                  }
                                }
                              },
                              {
                                "type": "JSXAttribute",
                                "start": 475,
                                "end": 497,
                                "loc": {
                                  "start": {
                                    "line": 20,
                                    "column": 13
                                  },
                                  "end": {
                                    "line": 20,
                                    "column": 35
                                  }
                                },
                                "name": {
                                  "type": "JSXIdentifier",
                                  "start": 475,
                                  "end": 479,
                                  "loc": {
                                    "start": {
                                      "line": 20,
                                      "column": 13
                                    },
                                    "end": {
                                      "line": 20,
                                      "column": 17
                                    }
                                  },
                                  "name": "rows"
                                },
                                "value": {
                                  "type": "JSXExpressionContainer",
                                  "start": 480,
                                  "end": 497,
                                  "loc": {
                                    "start": {
                                      "line": 20,
                                      "column": 18
                                    },
                                    "end": {
                                      "line": 20,
                                      "column": 35
                                    }
                                  },
                                  "expression": {
                                    "type": "MemberExpression",
                                    "start": 481,
                                    "end": 496,
                                    "loc": {
                                      "start": {
                                        "line": 20,
                                        "column": 19
                                      },
                                      "end": {
                                        "line": 20,
                                        "column": 34
                                      }
                                    },
                                    "object": {
                                      "type": "MemberExpression",
                                      "start": 481,
                                      "end": 491,
                                      "loc": {
                                        "start": {
                                          "line": 20,
                                          "column": 19
                                        },
                                        "end": {
                                          "line": 20,
                                          "column": 29
                                        }
                                      },
                                      "object": {
                                        "type": "ThisExpression",
                                        "start": 481,
                                        "end": 485,
                                        "loc": {
                                          "start": {
                                            "line": 20,
                                            "column": 19
                                          },
                                          "end": {
                                            "line": 20,
                                            "column": 23
                                          }
                                        }
                                      },
                                      "property": {
                                        "type": "Identifier",
                                        "start": 486,
                                        "end": 491,
                                        "loc": {
                                          "start": {
                                            "line": 20,
                                            "column": 24
                                          },
                                          "end": {
                                            "line": 20,
                                            "column": 29
                                          }
                                        },
                                        "name": "props"
                                      },
                                      "computed": false
                                    },
                                    "property": {
                                      "type": "Identifier",
                                      "start": 492,
                                      "end": 496,
                                      "loc": {
                                        "start": {
                                          "line": 20,
                                          "column": 30
                                        },
                                        "end": {
                                          "line": 20,
                                          "column": 34
                                        }
                                      },
                                      "name": "rows"
                                    },
                                    "computed": false
                                  }
                                }
                              }
                            ],
                            "name": {
                              "type": "JSXIdentifier",
                              "start": 395,
                              "end": 400,
                              "loc": {
                                "start": {
                                  "line": 18,
                                  "column": 12
                                },
                                "end": {
                                  "line": 18,
                                  "column": 17
                                }
                              },
                              "name": "Table"
                            },
                            "selfClosing": true
                          },
                          "closingElement": null,
                          "children": []
                        },
                        {
                          "type": "Literal",
                          "start": 500,
                          "end": 518,
                          "loc": {
                            "start": {
                              "line": 20,
                              "column": 38
                            },
                            "end": {
                              "line": 21,
                              "column": 7
                            }
                          },
                          "value": "          \n      \t",
                          "rawValue": null,
                          "raw": "          \n      \t"
                        }
                      ],
                      "parenthesizedExpression": true
                    }
                  }
                ]
              }
            }
          }
        ]
      }
    },
    {
      "type": "ExpressionStatement",
      "start": 537,
      "end": 574,
      "loc": {
        "start": {
          "line": 28,
          "column": 0
        },
        "end": {
          "line": 28,
          "column": 37
        }
      },
      "expression": {
        "type": "AssignmentExpression",
        "start": 537,
        "end": 573,
        "loc": {
          "start": {
            "line": 28,
            "column": 0
          },
          "end": {
            "line": 28,
            "column": 36
          }
        },
        "operator": "=",
        "left": {
          "type": "MemberExpression",
          "start": 537,
          "end": 551,
          "loc": {
            "start": {
              "line": 28,
              "column": 0
            },
            "end": {
              "line": 28,
              "column": 14
            }
          },
          "object": {
            "type": "Identifier",
            "start": 537,
            "end": 543,
            "loc": {
              "start": {
                "line": 28,
                "column": 0
              },
              "end": {
                "line": 28,
                "column": 6
              }
            },
            "name": "module"
          },
          "property": {
            "type": "Identifier",
            "start": 544,
            "end": 551,
            "loc": {
              "start": {
                "line": 28,
                "column": 7
              },
              "end": {
                "line": 28,
                "column": 14
              }
            },
            "name": "exports"
          },
          "computed": false
        },
        "right": {
          "type": "Identifier",
          "start": 554,
          "end": 573,
          "loc": {
            "start": {
              "line": 28,
              "column": 17
            },
            "end": {
              "line": 28,
              "column": 36
            }
          },
          "name": "checkJobStatusPopup"
        }
      }
    }
  ]
}